^C:\USERS\MAGSHIMIM\SOURCE\REPOS\PROJECT11\PROJECT11\FUNCTIONS.CPP|C:\USERS\MAGSHIMIM\SOURCE\REPOS\PROJECT11\PROJECT11\MAIN.CPP
C:\USERS\MAGSHIMIM\SOURCE\REPOS\PROJECT11\PROJECT11\DEBUG\VC141.PDB
C:\USERS\MAGSHIMIM\SOURCE\REPOS\PROJECT11\PROJECT11\DEBUG\VC141.IDB
C:\USERS\MAGSHIMIM\SOURCE\REPOS\PROJECT11\PROJECT11\DEBUG\MAIN.OBJ
C:\USERS\MAGSHIMIM\SOURCE\REPOS\PROJECT11\PROJECT11\DEBUG\FUNCTIONS.OBJ
^C:\USERS\MAGSHIMIM\SOURCE\REPOS\PROJECT11\PROJECT11\MAIN.CPP
C:\USERS\MAGSHIMIM\SOURCE\REPOS\PROJECT11\PROJECT11\DEBUG\VC141.PDB
^C:\USERS\MAGSHIMIM\SOURCE\REPOS\PROJECT11\PROJECT11\FUNCTIONS.CPP
C:\USERS\MAGSHIMIM\SOURCE\REPOS\PROJECT11\PROJECT11\DEBUG\VC141.PDB
C:\USERS\MAGSHIMIM\SOURCE\REPOS\PROJECT11\PROJECT11\DEBUG\VC141.IDB
C:\USERS\MAGSHIMIM\SOURCE\REPOS\PROJECT11\PROJECT11\DEBUG\FUNCTIONS.OBJ
